{
	"info": {
		"_postman_id": "c92a41d4-1a2a-4bde-b428-ffc9eaf251bf",
		"name": "Employees Assignment",
		"schema": "https://schema.getpostman.com/json/collection/v2.1.0/collection.json"
	},
	"item": [
		{
			"name": "employees",
			"request": {
				"method": "GET",
				"header": [],
				"url": {
					"raw": "localhost:8080/api/employees",
					"host": [
						"localhost"
					],
					"port": "8080",
					"path": [
						"api",
						"employees"
					]
				}
			},
			"response": []
		},
		{
			"name": "employees one",
			"request": {
				"method": "GET",
				"header": [],
				"url": {
					"raw": "localhost:8080/api/employees/1",
					"host": [
						"localhost"
					],
					"port": "8080",
					"path": [
						"api",
						"employees",
						"1"
					]
				}
			},
			"response": []
		},
		{
			"name": "employees ",
			"request": {
				"method": "POST",
				"header": [],
				"body": {
					"mode": "raw",
					"raw": "{\r\n\t\"generalDetails\": {\r\n\t\t\"firstName\": \"Avi\",\r\n\t\t\"lastName\": \"Cohen\",\r\n\t\t\"phone\": \"054-2359774\"\r\n\t}\r\n}",
					"options": {
						"raw": {
							"language": "json"
						}
					}
				},
				"url": {
					"raw": "localhost:8080/api/employees",
					"host": [
						"localhost"
					],
					"port": "8080",
					"path": [
						"api",
						"employees"
					]
				}
			},
			"response": []
		},
		{
			"name": "employees",
			"request": {
				"method": "PUT",
				"header": [],
				"body": {
					"mode": "raw",
					"raw": "{\r\n\t\"generalDetails\": {\r\n\t\t\"firstName\": \"Moshe\",\r\n\t\t\"lastName\": \"Katz\",\r\n\t\t\"phone\": \"055-6842667\"\r\n\t}\r\n}\r\n",
					"options": {
						"raw": {
							"language": "json"
						}
					}
				},
				"url": {
					"raw": "localhost:8080/api/employees/1",
					"host": [
						"localhost"
					],
					"port": "8080",
					"path": [
						"api",
						"employees",
						"1"
					]
				}
			},
			"response": []
		},
		{
			"name": "employees",
			"request": {
				"method": "DELETE",
				"header": [],
				"url": {
					"raw": "localhost:8080/api/employees/1",
					"host": [
						"localhost"
					],
					"port": "8080",
					"path": [
						"api",
						"employees",
						"1"
					]
				}
			},
			"response": []
		},
		{
			"name": "addresses",
			"request": {
				"method": "GET",
				"header": [],
				"url": {
					"raw": "localhost:8080/api/employees/1/addresses",
					"host": [
						"localhost"
					],
					"port": "8080",
					"path": [
						"api",
						"employees",
						"1",
						"addresses"
					]
				}
			},
			"response": []
		},
		{
			"name": "addresses one",
			"request": {
				"method": "GET",
				"header": [],
				"url": {
					"raw": "localhost:8080/api/employees/1/addresses/1",
					"host": [
						"localhost"
					],
					"port": "8080",
					"path": [
						"api",
						"employees",
						"1",
						"addresses",
						"1"
					]
				}
			},
			"response": []
		},
		{
			"name": "addresses",
			"request": {
				"method": "POST",
				"header": [],
				"body": {
					"mode": "raw",
					"raw": "{\r\n    \"street\": \"Arlozorov 3\",\r\n    \"city\": \"Tel Aviv\",\r\n    \"zip\":\t\"56789\",\r\n    \"country\": \"Israel\"\r\n}",
					"options": {
						"raw": {
							"language": "json"
						}
					}
				},
				"url": {
					"raw": "localhost:8080/api/employees/1/addresses",
					"host": [
						"localhost"
					],
					"port": "8080",
					"path": [
						"api",
						"employees",
						"1",
						"addresses"
					]
				}
			},
			"response": []
		},
		{
			"name": "addresses",
			"request": {
				"method": "PUT",
				"header": [],
				"body": {
					"mode": "raw",
					"raw": "{\n    \"street\": \"Ben Gurion 2\",\n    \"city\": \"Haifa\",\n    \"zip\":\t\"67698\",\n    \"country\": \"Israel\"\n}",
					"options": {
						"raw": {
							"language": "json"
						}
					}
				},
				"url": {
					"raw": "localhost:8080/api/employees/1/addresses/1",
					"host": [
						"localhost"
					],
					"port": "8080",
					"path": [
						"api",
						"employees",
						"1",
						"addresses",
						"1"
					]
				}
			},
			"response": []
		},
		{
			"name": "addresses",
			"request": {
				"method": "DELETE",
				"header": [],
				"url": {
					"raw": "localhost:8080/api/employees/1/addresses/1",
					"host": [
						"localhost"
					],
					"port": "8080",
					"path": [
						"api",
						"employees",
						"1",
						"addresses",
						"1"
					]
				}
			},
			"response": []
		},
		{
			"name": "spouse",
			"request": {
				"method": "GET",
				"header": [],
				"url": {
					"raw": "localhost:8080/api/employees/1/spouse",
					"host": [
						"localhost"
					],
					"port": "8080",
					"path": [
						"api",
						"employees",
						"1",
						"spouse"
					]
				}
			},
			"response": []
		},
		{
			"name": "spouse",
			"request": {
				"method": "POST",
				"header": [],
				"body": {
					"mode": "raw",
					"raw": "{\r\n\t\"firstName\": \"Sapir\",\r\n\t\"lastName\": \"Dror\",\r\n\t\"phone\": \"055-4687650\"\r\n}",
					"options": {
						"raw": {
							"language": "json"
						}
					}
				},
				"url": {
					"raw": "localhost:8080/api/employees/1/spouse",
					"host": [
						"localhost"
					],
					"port": "8080",
					"path": [
						"api",
						"employees",
						"1",
						"spouse"
					]
				}
			},
			"response": []
		},
		{
			"name": "spouse",
			"request": {
				"method": "PUT",
				"header": [],
				"body": {
					"mode": "raw",
					"raw": "{\r\n\t\"firstName\": \"Rotem\",\r\n\t\"lastName\": \"Shelah\",\r\n\t\"phone\": \"053-5674231\"\r\n}",
					"options": {
						"raw": {
							"language": "json"
						}
					}
				},
				"url": {
					"raw": "localhost:8080/api/employees/1/spouse",
					"host": [
						"localhost"
					],
					"port": "8080",
					"path": [
						"api",
						"employees",
						"1",
						"spouse"
					]
				}
			},
			"response": []
		},
		{
			"name": "spouse",
			"request": {
				"method": "DELETE",
				"header": [],
				"url": {
					"raw": "localhost:8080/api/employees/1/spouse",
					"host": [
						"localhost"
					],
					"port": "8080",
					"path": [
						"api",
						"employees",
						"1",
						"spouse"
					]
				}
			},
			"response": []
		},
		{
			"name": "children",
			"request": {
				"method": "GET",
				"header": [],
				"url": {
					"raw": "localhost:8080/api/employees/1/children",
					"host": [
						"localhost"
					],
					"port": "8080",
					"path": [
						"api",
						"employees",
						"1",
						"children"
					]
				}
			},
			"response": []
		},
		{
			"name": "children one",
			"request": {
				"method": "GET",
				"header": [],
				"url": {
					"raw": "localhost:8080/api/employees/1/children/1",
					"host": [
						"localhost"
					],
					"port": "8080",
					"path": [
						"api",
						"employees",
						"1",
						"children",
						"1"
					]
				}
			},
			"response": []
		},
		{
			"name": "children",
			"request": {
				"method": "POST",
				"header": [],
				"body": {
					"mode": "raw",
					"raw": "{\r\n\t\"firstName\": \"David\",\r\n\t\"lastName\": \"Harush\",\r\n\t\"isMale\": true\r\n}",
					"options": {
						"raw": {
							"language": "json"
						}
					}
				},
				"url": {
					"raw": "localhost:8080/api/employees/1/children",
					"host": [
						"localhost"
					],
					"port": "8080",
					"path": [
						"api",
						"employees",
						"1",
						"children"
					]
				}
			},
			"response": []
		},
		{
			"name": "children",
			"request": {
				"method": "PUT",
				"header": [],
				"body": {
					"mode": "raw",
					"raw": "{\r\n\t\"firstName\": \"Stav\",\r\n\t\"lastName\": \"Bar-Yehuda\",\r\n\t\"isMale\": false\r\n}",
					"options": {
						"raw": {
							"language": "json"
						}
					}
				},
				"url": {
					"raw": "localhost:8080/api/employees/1/children/1",
					"host": [
						"localhost"
					],
					"port": "8080",
					"path": [
						"api",
						"employees",
						"1",
						"children",
						"1"
					]
				}
			},
			"response": []
		},
		{
			"name": "children",
			"request": {
				"method": "DELETE",
				"header": [],
				"url": {
					"raw": "localhost:8080/api/employees/1/children/1",
					"host": [
						"localhost"
					],
					"port": "8080",
					"path": [
						"api",
						"employees",
						"1",
						"children",
						"1"
					]
				}
			},
			"response": []
		}
	]
}